^C:\USERS\ETHAN\SOURCE\REPOS\EJC.MADLIB\EJC.MADLIB\MAIN.CPP
/c /ZI /JMC /nologo /W3 /WX- /diagnostics:column /sdl /Od /Oy- /D WIN32 /D _DEBUG /D _CONSOLE /D _UNICODE /D UNICODE /Gm- /EHsc /RTC1 /MDd /GS /fp:precise /permissive- /Zc:wchar_t /Zc:forScope /Zc:inline /Fo"DEBUG\\" /Fd"DEBUG\VC142.PDB" /external:env:EXTERNAL_INCLUDE /external:W3 /Gd /TP /analyze- /FC C:\USERS\ETHAN\SOURCE\REPOS\EJC.MADLIB\EJC.MADLIB\MAIN.CPP
^C:\USERS\GRAVE\DESKTOP\MADLIB-LAB\EJC.MADLIB\MAIN.CPP
/c /ZI /JMC /nologo /W3 /WX- /diagnostics:column /sdl /Od /Oy- /D WIN32 /D _DEBUG /D _CONSOLE /D _UNICODE /D UNICODE /Gm- /EHsc /RTC1 /MDd /GS /fp:precise /Zc:wchar_t /Zc:forScope /Zc:inline /permissive- /Fo"DEBUG\\" /Fd"DEBUG\VC143.PDB" /external:W3 /Gd /TP /analyze- /FC C:\USERS\GRAVE\DESKTOP\MADLIB-LAB\EJC.MADLIB\MAIN.CPP
