^C:\USERS\GRAVE\DESKTOP\MADLIB-LAB\EJC.MADLIB\DEBUG\MAIN.OBJ
C:\USERS\GRAVE\DESKTOP\MADLIB-LAB\DEBUG\EJC.MADLIB.EXE
C:\USERS\GRAVE\DESKTOP\MADLIB-LAB\EJC.MADLIB\DEBUG\EJC.MADLIB.ILK
C:\USERS\GRAVE\DESKTOP\MADLIB-LAB\DEBUG\EJC.MADLIB.PDB
